%YAML 1.1
%TAG !u! tag:unity3d.com,2011:
--- !u!1045 &1
EditorBuildSettings:
  m_ObjectHideFlags: 0
  serializedVersion: 2
  m_Scenes:
  - enabled: 1
    path: Assets/Scenes/TitleScene.unity
    guid: fe4d5b535e9697b43915672ac0df6526
  - enabled: 1
    path: Assets/Scenes/GameScene.unity
    guid: d9d6af3cb8a67ef45b29192f599b7228
  m_configObjects: {}
